\relax 
\providecommand\hyper@newdestlabel[2]{}
\providecommand\HyperFirstAtBeginDocument{\AtBeginDocument}
\HyperFirstAtBeginDocument{\ifx\hyper@anchor\@undefined
\global\let\oldcontentsline\contentsline
\gdef\contentsline#1#2#3#4{\oldcontentsline{#1}{#2}{#3}}
\global\let\oldnewlabel\newlabel
\gdef\newlabel#1#2{\newlabelxx{#1}#2}
\gdef\newlabelxx#1#2#3#4#5#6{\oldnewlabel{#1}{{#2}{#3}}}
\AtEndDocument{\ifx\hyper@anchor\@undefined
\let\contentsline\oldcontentsline
\let\newlabel\oldnewlabel
\fi}
\fi}
\global\let\hyper@last\relax 
\gdef\HyperFirstAtBeginDocument#1{#1}
\providecommand\HyField@AuxAddToFields[1]{}
\providecommand\HyField@AuxAddToCoFields[2]{}
\citation{dong2017class}
\citation{dong2018imbalanced}
\bibstyle{ieee}
\bibdata{egbib}
\bibcite{dong2017class}{1}
\bibcite{dong2018imbalanced}{2}
\providecommand \oddpage@label [2]{}
\@writefile{toc}{\contentsline {section}{\numberline {1}\hskip -1em.\nobreakspace  {}Introduction}{1}{section.1}}
\newlabel{sec:intro}{{1}{1}{\hskip -1em.~Introduction}{section.1}{}}
\@writefile{toc}{\contentsline {section}{\numberline {2}\hskip -1em.\nobreakspace  {}Related Work}{1}{section.2}}
\@writefile{brf}{\backcite{dong2017class,dong2018imbalanced}{{1}{2.1}{subsection.2.1}}}
\@writefile{toc}{\contentsline {subsection}{\numberline {2.1}\hskip -1em.\nobreakspace  {}Class Rectification Hard Mining for Imbalanced Deep Learning \cite  {dong2017class,dong2018imbalanced}}{1}{subsection.2.1}}
\@writefile{toc}{\contentsline {section}{\numberline {3}\hskip -1em.\nobreakspace  {}Proposed Method}{1}{section.3}}
\@writefile{toc}{\contentsline {subsection}{\numberline {3.1}\hskip -1em.\nobreakspace  {}Overview}{1}{subsection.3.1}}
\@writefile{toc}{\contentsline {section}{\numberline {4}\hskip -1em.\nobreakspace  {}Experimental Results}{1}{section.4}}
\newlabel{sec:experiments}{{4}{1}{\hskip -1em.~Experimental Results}{section.4}{}}
\@writefile{toc}{\contentsline {subsection}{\numberline {4.1}\hskip -1em.\nobreakspace  {}Implementation Details}{1}{subsection.4.1}}
\@writefile{toc}{\contentsline {subsection}{\numberline {4.2}\hskip -1em.\nobreakspace  {}Ablation Study}{1}{subsection.4.2}}
\@writefile{toc}{\contentsline {subsection}{\numberline {4.3}\hskip -1em.\nobreakspace  {}Comparison to other models}{1}{subsection.4.3}}
\newlabel{sec:comparisons}{{4.3}{1}{\hskip -1em.~Comparison to other models}{subsection.4.3}{}}
\@writefile{toc}{\contentsline {section}{\numberline {5}\hskip -1em.\nobreakspace  {}Conclusions}{1}{section.5}}
